<svg xmlns="http://www.w3.org/2000/svg" width="16" height="16" fill="none" viewBox="0 0 16 16">
    <path fill="#9B9B9B" fill-opacity=".2" fill-rule="evenodd" d="M.698.698c-.93.93-.93 2.44 0 3.37L4.63 8 .698 11.932c-.93.93-.93 2.44 0 3.37.93.93 2.44.93 3.37 0L8 11.37l3.932 3.932c.93.93 2.44.93 3.37 0 .93-.93.93-2.44 0-3.37L11.37 8l3.932-3.932c.93-.93.93-2.44 0-3.37-.93-.93-2.44-.93-3.37 0L8 4.63 4.068.698c-.93-.93-2.44-.93-3.37 0z" clip-rule="evenodd"/>
</svg>
