<svg xmlns="http://www.w3.org/2000/svg" width="32" height="32" fill="none" viewBox="0 0 32 32">
    <path fill="#C2DE9B" fill-rule="evenodd" d="M11 32c11.598 0 21-9.402 21-21 0-4.033-1.137-7.8-3.108-11H5C2.239 0 0 2.239 0 5v23.892C3.2 30.863 6.967 32 11 32z" clip-rule="evenodd"/>
    <path stroke="#fff" stroke-linejoin="round" stroke-width="2.5" d="M9 16.387L12.929 21 24 10"/>
</svg>
