<svg xmlns="http://www.w3.org/2000/svg" width="24" height="24" fill="none" viewBox="0 0 24 24">
    <path stroke="#4892CC" stroke-linecap="round" stroke-linejoin="round" stroke-width="2" d="M21 15v4c0 .53-.21 1.04-.586 1.414C20.04 20.79 19.53 21 19 21H5c-.53 0-1.04-.21-1.414-.586C3.21 20.04 3 19.53 3 19v-4M7 10l5 5 5-5M12 15V3"/>
</svg>
