<svg xmlns="http://www.w3.org/2000/svg" width="32" height="32" fill="none" viewBox="0 0 32 32">
    <path stroke="#4892CC" stroke-linecap="round" stroke-linejoin="round" stroke-width="2.5" d="M25.333 4.533H6.667C5.194 4.533 4 5.727 4 7.2v18.667c0 1.472 1.194 2.666 2.667 2.666h18.666c1.473 0 2.667-1.194 2.667-2.666V7.2c0-1.473-1.194-2.667-2.667-2.667zM21.334 1.867V7.2M10.666 1.867V7.2M4 12.533h24"/>
    <path fill="#4892CC" d="M8 16H12.8V20.8H8z"/>
</svg>
