<svg xmlns="http://www.w3.org/2000/svg" width="22" height="22" fill="none" viewBox="0 0 22 22">
    <mask id="1rb2cexcfa" width="22" height="22" x="0" y="0" maskUnits="userSpaceOnUse">
        <path fill="#C4C4C4" d="M0 0H22V22H0z"/>
    </mask>
    <g fill="#E20620" mask="url(#1rb2cexcfa)">
        <circle cx="11" cy="6.769" r="5.077"/>
        <path stroke="#E20620" stroke-width="1.75" d="M12.77 13.539H9.23c-2.76 0-5 2.238-5 5v2.615h13.54v-2.616c0-2.761-2.24-5-5-5z"/>
    </g>
</svg>
