<svg xmlns="http://www.w3.org/2000/svg" width="20" height="20" fill="none" viewBox="0 0 20 20">
    <rect width="20" height="20" fill="#E20620" rx="10"/>
    <rect width="11" height="11" x="4.5" y="4.5" fill="#E20620" stroke="#fff" rx="5.5"/>
</svg>
